13 Shaping Data | Reproducible statistics for psychologists with R
…
Note, I switch to using a tibble here instead of a data.frame.

subjects <- rep(1:10, each = 50)
room <- rep(c("Noisy","Quiet"), each = 50*5)
words <- rep(1:50, 10)
correct <- rbinom(500,1,.5)

recall_data <- tibble(subjects,
                      room,
                      words,
                      correct)

recall_data
#> # A tibble: 500 × 4
#>    subjects room  words correct
#>       <int> <chr> <int>   <int>
#>  1        1 Noisy     1       1
#>  2        1 Noisy     2       1
#>  3        1 Noisy     3       1
#>  4        1 Noisy     4       1
#>  5        1 Noisy     5       1
#>  6        1 Noisy     6       1
#>  7        1 Noisy     7       1
#>  8        1 Noisy     8       1
#>  9        1 Noisy     9       1
#> 10        1 Noisy    10       0
#> # … with 490 more rows
…
13.4.4 Simple linear regression

100 people write down their height in centimeters, and the day of the month they were born. Conduct a linear regression to see if day of month explains variation in height.

people <- tibble(height = rnorm(100, 90, 10),
                 day = sample(1:31, 100, replace=TRUE))

people
#> # A tibble: 100 × 2
#>    height   day
#>     <dbl> <int>
#>  1  112.      5
#>  2   91.9    20
#>  3  101.     31
#>  4   98.6    17
#>  5   77.5     8
#>  6   78.4     8
#>  7   85.7    14
#>  8   90.2     9
#>  9   63.2    30
#> 10   81.6    12
#> # … with 90 more rows
…
weight_data <- tibble(subject_number = rep(1:25, each=5*7),
                          day = rep(rep(c("S","M","T","W","Th","F","Sa"),
                                      each = 5), 25),
                          measurement_number = rep(1:5, 7*25),
                          weights = rnorm(25*5*7, 100, 25))

As we will see in later labs on ANOVA, the analysis can be performed in one-line with the aov function

subject_means <- weight_data %>%
  group_by(subject_number,day) %>%
  summarize(mean_weight = mean(weights), .groups="drop")

subject_means
#> # A tibble: 175 × 3
#>    subject_number day   mean_weight
#>             <int> <chr>       <dbl>
#>  1              1 F           102. 
#>  2              1 M           108. 
#>  3              1 S           107. 
#>  4              1 Sa          116. 
#>  5              1 T            97.7
#>  6              1 Th           95.5
#>  7              1 W            88.3
#>  8              2 F            85.0
#>  9              2 M            85.1
#> 10              2 S           108. 
#> # … with 165 more rows

aov.out <- aov(mean_weight ~ day, data = subject_means)
summary(aov.out)
#>              Df Sum Sq Mean Sq F value Pr(>F)
#> day           6    668   111.4   0.759  0.603
#> Residuals   168  24655   146.8

And, as we will also learn in class, ANOVA and Linear Regression are fundamentally the same analysis, so we could also use the lm function and treat the analysis as a regression.

subject_means <- weight_data %>%
  group_by(subject_number,day) %>%
  summarize(mean_weight = mean(weights), .groups="drop")

subject_means
#> # A tibble: 175 × 3
#>    subject_number day   mean_weight
#>             <int> <chr>       <dbl>
#>  1              1 F           102. 
#>  2              1 M           108. 
#>  3              1 S           107. 
#>  4              1 Sa          116. 
#>  5              1 T            97.7
#>  6              1 Th           95.5
#>  7              1 W            88.3
#>  8              2 F            85.0
#>  9              2 M            85.1
#> 10              2 S           108. 
#> # … with 165 more rows
…
weight_data <- tibble(subject_number = rep(1:25, each=4*7),
                          day = rep(rep(c("S","M","T","W","Th","F","Sa"),
                                      each = 4), 25),
                          time_of_day = rep(c("Morning","Morning",
                                              "Evening","Evening"),7*25),
                          measurement_number = rep(rep(1:2, 2), 7*25),
                          weights = rnorm(25*4*7, 100, 25))

subject_means <- weight_data %>%
  group_by(subject_number,day, time_of_day) %>%
  summarize(mean_weight = mean(weights), .groups="drop")

subject_means
#> # A tibble: 350 × 4
#>    subject_number day   time_of_day mean_weight
#>             <int> <chr> <chr>             <dbl>
#>  1              1 F     Evening            65.5
#>  2              1 F     Morning            90.9
#>  3              1 M     Evening            84.9
#>  4              1 M     Morning            84.5
#>  5              1 S     Evening           101. 
#>  6              1 S     Morning           104. 
#>  7              1 Sa    Evening           112. 
#>  8              1 Sa    Morning           116. 
#>  9              1 T     Evening            99.8
#> 10              1 T     Morning           117. 
#> # … with 340 more rows
…
Just like we can treat a one-way ANOVA as a regression, we can also treat a Factorial ANOVA as a multiple regression:

subject_means <- weight_data %>%
  group_by(subject_number,day, time_of_day) %>%
  summarize(mean_weight = mean(weights), .groups="drop")

subject_means$day <-as.factor(subject_means$day)
subject_means$time_of_day <-as.factor(subject_means$time_of_day)

subject_means
#> # A tibble: 350 × 4
#>    subject_number day   time_of_day mean_weight
#>             <int> <fct> <fct>             <dbl>
#>  1              1 F     Evening            65.5
#>  2              1 F     Morning            90.9
#>  3              1 M     Evening            84.9
#>  4              1 M     Morning            84.5
#>  5              1 S     Evening           101. 
#>  6              1 S     Morning           104. 
#>  7              1 Sa    Evening           112. 
#>  8              1 Sa    Morning           116. 
#>  9              1 T     Evening            99.8
#> 10              1 T     Morning           117. 
#> # … with 340 more rows
…
